<?xml version="1.0" encoding="UTF-8" standalone="no"?>
<svg
   enable-background="new 0 0 1920 1080"
   viewBox="0 0 915.28064 285.41122"
   version="1.1"
   id="svg10"
   sodipodi:docname="logo.svg"
   inkscape:version="1.1.1 (3bf5ae0d25, 2021-09-20)"
   width="915.28064"
   height="285.41122"
   xmlns:inkscape="http://www.inkscape.org/namespaces/inkscape"
   xmlns:sodipodi="http://sodipodi.sourceforge.net/DTD/sodipodi-0.dtd"
   xmlns="http://www.w3.org/2000/svg"
   xmlns:svg="http://www.w3.org/2000/svg">
  <defs
     id="defs14" />
  <sodipodi:namedview
     id="namedview12"
     pagecolor="#ffffff"
     bordercolor="#666666"
     borderopacity="1.0"
     inkscape:pageshadow="2"
     inkscape:pageopacity="0.0"
     inkscape:pagecheckerboard="0"
     showgrid="false"
     inkscape:zoom="0.57468824"
     inkscape:cx="417.61773"
     inkscape:cy="14.790628"
     inkscape:window-width="1920"
     inkscape:window-height="1080"
     inkscape:window-x="0"
     inkscape:window-y="0"
     inkscape:window-maximized="1"
     inkscape:current-layer="g6" />
  <switch
     id="switch8"
     transform="translate(-502.36,-397.2988)">
    <foreignObject
       height="1"
       requiredExtensions="http://ns.adobe.com/AdobeIllustrator/10.0/"
       width="1" />
    <g
       id="g6">
      <path
         d="m 769.37,500.59 c -31.76,-25.41 -124.07,4.94 -165.01,37.12 v -12 c 0,0 72.86,-39.43 98.47,-55.47 28,-17.52 52.71,-37.07 53.65,-49.3 0.82,-10.71 -3.65,-23.24 -55.88,-23.24 H 502.36 v 6 c 30,0 30,12 30,24 v 225 c 0,12 0,24 -30,24 v 6 h 182.88 c 24.74,0 71,-28.45 89.41,-65.46 20.47,-41.12 25.11,-92.34 -5.28,-116.65 z M 604.36,406.67 c 1.69,-0.45 52.65,-2.63 67.76,0.05 15,2.65 19.89,12.36 18.86,26.47 -1.26,17.16 -11.17,41.33 -27.86,51 -16.53,9.59 -46.38,25.02 -58.77,31.53 V 406.67 Z m 39.18,116.51 c 28.58,-13.47 46.01,-11.75 62.78,11.69 28.99,40.54 -15.48,138.83 -80.42,138.83 H 604.37 V 561.65 c -0.01,-19.77 26.84,-32.66 39.17,-38.47 z"
         id="path2">
        <title
           id="title991">B</title>
      </path>
      <path
         d="m 1413.55,445.18 c -12.24,-47.06 -77.95,-47.27 -102.35,-47.65 -39.52,-0.61 -275.62,0.18 -275.62,0.18 0,0 3.9,17.07 24.25,42.1 24.17,29.72 44.38,45.04 44.38,96.92 v 49.43 c -3.91,-57.88 -20.87,-86.59 -44.99,-119.1 -56.84,-76.59 -157.84,-69.35 -157.84,-69.35 h -132 v 6 c 30,0 30,12 30,24 v 225 c 0,12 0,24 -30,24 v 6 h 234 v -6 c -30,0 -30,-12 -30,-24 V 445.89 c 0,-30.83 7.84,-27.64 23.31,-20.67 14.39,7.26 28.73,16.88 41.63,29.6 0.41,0.41 0.82,0.81 1.22,1.22 4.67,4.72 9.15,9.85 13.35,15.44 11.63,16.29 22.93,42.21 18.7,68.5 -6.08,37.78 -22.67,51.21 -22.67,96.03 0,46.94 17.19,46.7 17.19,46.7 h 95.68 c 80.94,0 129.51,-24.12 191.53,-80.59 58.61,-53.37 72.47,-109.88 60.23,-156.94 z M 901.37,640.71 c 0,0 0,36 -15,36 -15,0 -15,-36 -15,-36 v -201 c 0,0 0,-36 15,-36 15,0 15,36 15,36 z m 241.83,0 c 0,0 0,36 -15,36 -15,0 -15,-36 -15,-36 v -201 c 0,0 0,-36 15,-36 15,0 15,36 15,36 z m 171.55,-22.94 c -7.27,10.27 -21.77,23.38 -38.47,31.41 -45.15,21.72 -61.08,9.41 -61.08,-34.35 V 406.25 c 11.59,-0.01 25.1,0.04 38.82,0.25 22.86,0.36 68.3,4.06 74.82,50.2 6.12,43.3 8.7,128.88 -14.09,161.07 z"
         id="path4">
        <title
           id="title989">IND</title>
        <desc
           id="desc949">&quot;IND&quot; - not a Myers-Briggs personality type.</desc>
      </path>
    </g>
  </switch>
</svg>
